{
	"id": "4088595e-9318-49fd-9405-cd426be42cb7",
	"name": "ETL",
	"values": [
		{
			"key": "etl-url",
			"value": "http://localhost:8080",
			"enabled": true
		}
	],
	"_postman_variable_scope": "environment",
	"_postman_exported_at": "2021-10-01T18:04:53.701Z",
	"_postman_exported_using": "Postman/7.34.0"
}